%YAML 1.1
%TAG !u! tag:unity3d.com,2011:
--- !u!1 &8296566790254461219
GameObject:
  m_ObjectHideFlags: 0
  m_CorrespondingSourceObject: {fileID: 0}
  m_PrefabInstance: {fileID: 0}
  m_PrefabAsset: {fileID: 0}
  serializedVersion: 6
  m_Component:
  - component: {fileID: 8296566790254461218}
  - component: {fileID: 8296566790254461221}
  m_Layer: 5
  m_Name: Switcher
  m_TagString: Untagged
  m_Icon: {fileID: 0}
  m_NavMeshLayer: 0
  m_StaticEditorFlags: 0
  m_IsActive: 1
--- !u!224 &8296566790254461218
RectTransform:
  m_ObjectHideFlags: 0
  m_CorrespondingSourceObject: {fileID: 0}
  m_PrefabInstance: {fileID: 0}
  m_PrefabAsset: {fileID: 0}
  m_GameObject: {fileID: 8296566790254461219}
  m_LocalRotation: {x: -0, y: -0, z: -0, w: 1}
  m_LocalPosition: {x: 0, y: 0, z: 0}
  m_LocalScale: {x: 1, y: 1, z: 1}
  m_Children:
  - {fileID: 4253744946129097625}
  - {fileID: 2717448844821399692}
  m_Father: {fileID: 0}
  m_RootOrder: 0
  m_LocalEulerAnglesHint: {x: 0, y: 0, z: 0}
  m_AnchorMin: {x: 0.5, y: 0.5}
  m_AnchorMax: {x: 0.5, y: 0.5}
  m_AnchoredPosition: {x: 0, y: 0}
  m_SizeDelta: {x: 500, y: 500}
  m_Pivot: {x: 0.5, y: 0.5}
--- !u!114 &8296566790254461221
MonoBehaviour:
  m_ObjectHideFlags: 0
  m_CorrespondingSourceObject: {fileID: 0}
  m_PrefabInstance: {fileID: 0}
  m_PrefabAsset: {fileID: 0}
  m_GameObject: {fileID: 8296566790254461219}
  m_Enabled: 1
  m_EditorHideFlags: 0
  m_Script: {fileID: 11500000, guid: 8a8695521f0d02e499659fee002a26c2, type: 3}
  m_Name: 
  m_EditorClassIdentifier: 
  m_Padding:
    m_Left: 0
    m_Right: 0
    m_Top: 0
    m_Bottom: 0
  m_ChildAlignment: 4
  m_StartCorner: 0
  m_StartAxis: 0
  m_CellSize: {x: 130, y: 130}
  m_Spacing: {x: 20, y: 20}
  m_Constraint: 0
  m_ConstraintCount: 2
--- !u!1001 &2642952610602332052
PrefabInstance:
  m_ObjectHideFlags: 0
  serializedVersion: 2
  m_Modification:
    m_TransformParent: {fileID: 8296566790254461218}
    m_Modifications:
    - target: {fileID: 79928133884880664, guid: 19abd319b379af14fb3f78dfd2d90d18, type: 3}
      propertyPath: m_Pivot.x
      value: 0.5
      objectReference: {fileID: 0}
    - target: {fileID: 79928133884880664, guid: 19abd319b379af14fb3f78dfd2d90d18, type: 3}
      propertyPath: m_Pivot.y
      value: 0.5
      objectReference: {fileID: 0}
    - target: {fileID: 79928133884880664, guid: 19abd319b379af14fb3f78dfd2d90d18, type: 3}
      propertyPath: m_RootOrder
      value: 1
      objectReference: {fileID: 0}
    - target: {fileID: 79928133884880664, guid: 19abd319b379af14fb3f78dfd2d90d18, type: 3}
      propertyPath: m_AnchorMax.x
      value: 0
      objectReference: {fileID: 0}
    - target: {fileID: 79928133884880664, guid: 19abd319b379af14fb3f78dfd2d90d18, type: 3}
      propertyPath: m_AnchorMax.y
      value: 0
      objectReference: {fileID: 0}
    - target: {fileID: 79928133884880664, guid: 19abd319b379af14fb3f78dfd2d90d18, type: 3}
      propertyPath: m_AnchorMin.x
      value: 0
      objectReference: {fileID: 0}
    - target: {fileID: 79928133884880664, guid: 19abd319b379af14fb3f78dfd2d90d18, type: 3}
      propertyPath: m_AnchorMin.y
      value: 0
      objectReference: {fileID: 0}
    - target: {fileID: 79928133884880664, guid: 19abd319b379af14fb3f78dfd2d90d18, type: 3}
      propertyPath: m_SizeDelta.x
      value: 0
      objectReference: {fileID: 0}
    - target: {fileID: 79928133884880664, guid: 19abd319b379af14fb3f78dfd2d90d18, type: 3}
      propertyPath: m_SizeDelta.y
      value: 0
      objectReference: {fileID: 0}
    - target: {fileID: 79928133884880664, guid: 19abd319b379af14fb3f78dfd2d90d18, type: 3}
      propertyPath: m_LocalPosition.x
      value: 0
      objectReference: {fileID: 0}
    - target: {fileID: 79928133884880664, guid: 19abd319b379af14fb3f78dfd2d90d18, type: 3}
      propertyPath: m_LocalPosition.y
      value: 0
      objectReference: {fileID: 0}
    - target: {fileID: 79928133884880664, guid: 19abd319b379af14fb3f78dfd2d90d18, type: 3}
      propertyPath: m_LocalPosition.z
      value: 0
      objectReference: {fileID: 0}
    - target: {fileID: 79928133884880664, guid: 19abd319b379af14fb3f78dfd2d90d18, type: 3}
      propertyPath: m_LocalRotation.w
      value: 1
      objectReference: {fileID: 0}
    - target: {fileID: 79928133884880664, guid: 19abd319b379af14fb3f78dfd2d90d18, type: 3}
      propertyPath: m_LocalRotation.x
      value: -0
      objectReference: {fileID: 0}
    - target: {fileID: 79928133884880664, guid: 19abd319b379af14fb3f78dfd2d90d18, type: 3}
      propertyPath: m_LocalRotation.y
      value: -0
      objectReference: {fileID: 0}
    - target: {fileID: 79928133884880664, guid: 19abd319b379af14fb3f78dfd2d90d18, type: 3}
      propertyPath: m_LocalRotation.z
      value: -0
      objectReference: {fileID: 0}
    - target: {fileID: 79928133884880664, guid: 19abd319b379af14fb3f78dfd2d90d18, type: 3}
      propertyPath: m_AnchoredPosition.x
      value: 0
      objectReference: {fileID: 0}
    - target: {fileID: 79928133884880664, guid: 19abd319b379af14fb3f78dfd2d90d18, type: 3}
      propertyPath: m_AnchoredPosition.y
      value: 0
      objectReference: {fileID: 0}
    - target: {fileID: 79928133884880664, guid: 19abd319b379af14fb3f78dfd2d90d18, type: 3}
      propertyPath: m_LocalEulerAnglesHint.x
      value: 0
      objectReference: {fileID: 0}
    - target: {fileID: 79928133884880664, guid: 19abd319b379af14fb3f78dfd2d90d18, type: 3}
      propertyPath: m_LocalEulerAnglesHint.y
      value: 0
      objectReference: {fileID: 0}
    - target: {fileID: 79928133884880664, guid: 19abd319b379af14fb3f78dfd2d90d18, type: 3}
      propertyPath: m_LocalEulerAnglesHint.z
      value: 0
      objectReference: {fileID: 0}
    - target: {fileID: 79928133884880665, guid: 19abd319b379af14fb3f78dfd2d90d18, type: 3}
      propertyPath: m_Name
      value: SwitcherButton
      objectReference: {fileID: 0}
    m_RemovedComponents: []
  m_SourcePrefab: {fileID: 100100000, guid: 19abd319b379af14fb3f78dfd2d90d18, type: 3}
--- !u!224 &2717448844821399692 stripped
RectTransform:
  m_CorrespondingSourceObject: {fileID: 79928133884880664, guid: 19abd319b379af14fb3f78dfd2d90d18, type: 3}
  m_PrefabInstance: {fileID: 2642952610602332052}
  m_PrefabAsset: {fileID: 0}
--- !u!1001 &4184864724433237121
PrefabInstance:
  m_ObjectHideFlags: 0
  serializedVersion: 2
  m_Modification:
    m_TransformParent: {fileID: 8296566790254461218}
    m_Modifications:
    - target: {fileID: 79928133884880664, guid: 19abd319b379af14fb3f78dfd2d90d18, type: 3}
      propertyPath: m_Pivot.x
      value: 0.5
      objectReference: {fileID: 0}
    - target: {fileID: 79928133884880664, guid: 19abd319b379af14fb3f78dfd2d90d18, type: 3}
      propertyPath: m_Pivot.y
      value: 0.5
      objectReference: {fileID: 0}
    - target: {fileID: 79928133884880664, guid: 19abd319b379af14fb3f78dfd2d90d18, type: 3}
      propertyPath: m_RootOrder
      value: 0
      objectReference: {fileID: 0}
    - target: {fileID: 79928133884880664, guid: 19abd319b379af14fb3f78dfd2d90d18, type: 3}
      propertyPath: m_AnchorMax.x
      value: 0
      objectReference: {fileID: 0}
    - target: {fileID: 79928133884880664, guid: 19abd319b379af14fb3f78dfd2d90d18, type: 3}
      propertyPath: m_AnchorMax.y
      value: 0
      objectReference: {fileID: 0}
    - target: {fileID: 79928133884880664, guid: 19abd319b379af14fb3f78dfd2d90d18, type: 3}
      propertyPath: m_AnchorMin.x
      value: 0
      objectReference: {fileID: 0}
    - target: {fileID: 79928133884880664, guid: 19abd319b379af14fb3f78dfd2d90d18, type: 3}
      propertyPath: m_AnchorMin.y
      value: 0
      objectReference: {fileID: 0}
    - target: {fileID: 79928133884880664, guid: 19abd319b379af14fb3f78dfd2d90d18, type: 3}
      propertyPath: m_SizeDelta.x
      value: 0
      objectReference: {fileID: 0}
    - target: {fileID: 79928133884880664, guid: 19abd319b379af14fb3f78dfd2d90d18, type: 3}
      propertyPath: m_SizeDelta.y
      value: 0
      objectReference: {fileID: 0}
    - target: {fileID: 79928133884880664, guid: 19abd319b379af14fb3f78dfd2d90d18, type: 3}
      propertyPath: m_LocalPosition.x
      value: 0
      objectReference: {fileID: 0}
    - target: {fileID: 79928133884880664, guid: 19abd319b379af14fb3f78dfd2d90d18, type: 3}
      propertyPath: m_LocalPosition.y
      value: 0
      objectReference: {fileID: 0}
    - target: {fileID: 79928133884880664, guid: 19abd319b379af14fb3f78dfd2d90d18, type: 3}
      propertyPath: m_LocalPosition.z
      value: 0
      objectReference: {fileID: 0}
    - target: {fileID: 79928133884880664, guid: 19abd319b379af14fb3f78dfd2d90d18, type: 3}
      propertyPath: m_LocalRotation.w
      value: 1
      objectReference: {fileID: 0}
    - target: {fileID: 79928133884880664, guid: 19abd319b379af14fb3f78dfd2d90d18, type: 3}
      propertyPath: m_LocalRotation.x
      value: -0
      objectReference: {fileID: 0}
    - target: {fileID: 79928133884880664, guid: 19abd319b379af14fb3f78dfd2d90d18, type: 3}
      propertyPath: m_LocalRotation.y
      value: -0
      objectReference: {fileID: 0}
    - target: {fileID: 79928133884880664, guid: 19abd319b379af14fb3f78dfd2d90d18, type: 3}
      propertyPath: m_LocalRotation.z
      value: -0
      objectReference: {fileID: 0}
    - target: {fileID: 79928133884880664, guid: 19abd319b379af14fb3f78dfd2d90d18, type: 3}
      propertyPath: m_AnchoredPosition.x
      value: 0
      objectReference: {fileID: 0}
    - target: {fileID: 79928133884880664, guid: 19abd319b379af14fb3f78dfd2d90d18, type: 3}
      propertyPath: m_AnchoredPosition.y
      value: 0
      objectReference: {fileID: 0}
    - target: {fileID: 79928133884880664, guid: 19abd319b379af14fb3f78dfd2d90d18, type: 3}
      propertyPath: m_LocalEulerAnglesHint.x
      value: 0
      objectReference: {fileID: 0}
    - target: {fileID: 79928133884880664, guid: 19abd319b379af14fb3f78dfd2d90d18, type: 3}
      propertyPath: m_LocalEulerAnglesHint.y
      value: 0
      objectReference: {fileID: 0}
    - target: {fileID: 79928133884880664, guid: 19abd319b379af14fb3f78dfd2d90d18, type: 3}
      propertyPath: m_LocalEulerAnglesHint.z
      value: 0
      objectReference: {fileID: 0}
    - target: {fileID: 79928133884880665, guid: 19abd319b379af14fb3f78dfd2d90d18, type: 3}
      propertyPath: m_Name
      value: SwitcherButton
      objectReference: {fileID: 0}
    m_RemovedComponents: []
  m_SourcePrefab: {fileID: 100100000, guid: 19abd319b379af14fb3f78dfd2d90d18, type: 3}
--- !u!224 &4253744946129097625 stripped
RectTransform:
  m_CorrespondingSourceObject: {fileID: 79928133884880664, guid: 19abd319b379af14fb3f78dfd2d90d18, type: 3}
  m_PrefabInstance: {fileID: 4184864724433237121}
  m_PrefabAsset: {fileID: 0}
